{
  "extends": "../../../../tslint.json",
  "rules": {
    "directive-selector": [true, "attribute", "teamTasks", "camelCase"],
    "component-selector": [true, "element", "team-tasks", "kebab-case"]
  }
}
